{
  "name": "slch-icons",
  "css_prefix_text": "icon-",
  "css_use_suffix": false,
  "hinting": true,
  "units_per_em": 1000,
  "ascent": 850,
  "glyphs": [
    {
      "uid": "9aec9846435aa4f056f74b30eb673672",
      "css": "logo",
      "code": 59392,
      "src": "custom_icons",
      "selected": true,
      "svg": {
        "path": "M487 55L487 59 494 59 501 59 501 80 501 101 505.3 101 509.7 101 510.3 86.7C510.7 78.9 511 69.5 511 65.7L511 59 518.5 59 526 59 526 55.7 526 52.3 512.3 51.7C504.8 51.3 496.1 51 492.8 51L487 51 487 55ZM452.8 54C445.2 56.3 441.4 62 442.3 69.6 443.1 76.9 448 80.4 460.2 82.5 466.7 83.5 468.9 89.2 464.5 93.5 461.7 96.4 456.1 96.8 452 94.5 448.2 92.3 446.2 92.7 444.5 96L442.9 99.1 447.7 101.2C461.4 107.4 475 100.4 475 87.3 475 79.5 471.4 76.1 460.7 73.6 451.8 71.5 449.2 69.2 450.9 64.7 452.4 60.8 458.2 60 466.6 62.5 468.1 63 468.9 62.5 469.8 60.5 471.5 56.7 471.4 56.4 467 54.6 462.7 52.9 457.2 52.7 452.8 54ZM573 57.7C573 58.1 571.7 66.3 570.1 75.8 566.7 96.5 566.1 97.5 558.3 96.7 553.1 96.2 553 96.2 552.2 99.3 551.1 103.3 552.2 104 559.8 104.7 567 105.3 571.6 102.9 574.6 97.3 576.5 93.7 582.9 59.6 581.9 58.6 581 57.7 573 56.9 573 57.7ZM393.4 65.4C383.8 69.9 377.8 80.4 379.4 90.2 381.8 105.1 392.2 114 405.9 112.7 413.4 112.1 421.3 107.9 425.1 102.7 434.4 89.9 427.9 69.1 413.1 64.1 407.4 62.2 399.1 62.8 393.4 65.4ZM413.1 73.7C419.9 79.4 422.2 91.4 417.7 98.1 414.5 103 409.7 105.2 403.2 104.7 394.4 104.1 389 97.1 389 86.3 389 76.2 394.3 71.1 404.7 71 408.9 71 410.5 71.5 413.1 73.7ZM611.2 72.3C595.5 92.4 584.1 107.9 584.8 108.4 585.3 108.7 587.5 109.2 589.6 109.6 593.4 110.2 593.6 110 597 105.2L600.5 100.2 610 102.9 619.5 105.5 620.5 111.9C621.5 118.2 621.6 118.3 625.4 119.7 627.6 120.4 629.5 120.8 629.8 120.5 630.5 119.8 625.1 69.7 624.3 68.9 623.8 68.5 621.8 67.7 619.8 67.2L616 66.2 611.2 72.3ZM618.8 89.3C619.3 96.2 619.3 98.9 618.5 98.6 617.9 98.4 614.6 97.4 611.2 96.5 607.7 95.5 605.1 94.4 605.2 94.1 606.5 91.1 617.6 77.1 617.8 78.1 617.9 78.9 618.4 83.9 618.8 89.3ZM350.3 78.6L347.1 80 350.2 87.2C357.9 105.4 360 110.4 359.7 110.6 359.6 110.7 351.4 106.3 341.5 100.8 324.7 91.5 323.3 90.9 320 91.7 318.1 92.2 316.6 93 316.7 93.5 316.9 94.8 334.8 137.1 335.3 137.6 335.5 137.9 337.3 137.4 339.3 136.5L342.8 135 336.4 119.9C332.9 111.5 330.1 104.6 330.2 104.4 330.4 104.3 338.5 108.6 348.3 114.1 358 119.5 366.7 124 367.4 124 368.2 124 370 123.6 371.3 123.1L373.8 122.1 364.3 99.6C359 87.2 354.4 77 354.1 77.1 353.8 77.1 352.1 77.8 350.3 78.6ZM658 84.3C657 86.6 652.5 96.6 648.1 106.5L640.1 124.5 643.6 126.3C645.6 127.3 647.3 128 647.5 127.8 647.6 127.6 650.1 122.1 653 115.5 662.1 94.7 660.5 94.4 666.6 117.9 669.5 129.1 672.3 138.7 672.7 139.1 673.1 139.5 674.6 140.1 676 140.5 678.4 141.1 678.8 140.3 687.7 120.2 692.8 108.7 697.2 98.7 697.5 97.8 698 96.7 697.2 95.9 694.9 95.1 693.1 94.5 691.4 94 691 94 690.6 94 687.4 100.5 683.9 108.5 680.4 116.5 677.3 123 677 123 676.7 123 674.5 115.3 672.1 105.8 669.7 96.3 667.3 87.2 666.8 85.4 666.2 83.1 665.1 81.9 662.9 81.1 660 80.1 659.8 80.2 658 84.3ZM288.6 107.6C282.9 109.7 278.4 113.4 275.3 118.8 266.3 134 279.3 156.4 297 156.4 306.8 156.4 317.4 149.5 320.1 141.3 321.4 137.3 321.3 137.2 317.4 136.4 314.8 135.9 314.3 136.2 312.8 139.3 311.7 141.5 309.3 143.9 306.5 145.6 300.8 148.9 294.8 148.6 289.6 144.7 285.7 141.7 281 133 281 128.7 281 121 288.6 114 296.8 114 300.4 114 301 113.7 301.6 111.5 302.6 107.3 301.5 106 296.8 106.1 294.4 106.1 290.7 106.8 288.6 107.6ZM709 130C697.7 138.3 688.4 145.5 688.2 146 687.9 146.9 693.1 150 695.1 150 695.7 150 698.3 148.5 700.9 146.6L705.5 143.3 714.1 148.6 722.7 154 721.4 159.8 720 165.5 723.2 168.2C725 169.8 726.8 171 727.2 171 728.2 171 728.2 170.8 733.1 145 735.3 133.2 737.3 122.7 737.6 121.8 737.9 120.7 736.9 119.3 734.3 117.6 732.2 116.2 730.3 115 730 115 729.7 115 720.3 121.8 709 130ZM726.6 135.8C725.3 141.4 724.1 146.2 723.9 146.5 723.6 146.7 720.6 145.1 717.2 142.9L710.9 138.9 719.7 132.1C724.5 128.3 728.6 125.3 728.7 125.4 728.7 125.4 727.8 130.1 726.6 135.8ZM238.6 141C232.2 146 227 150.3 227 150.7 227 151 233.2 159.1 240.8 168.8 248.3 178.5 255 187 255.6 187.8 256.4 188.9 259 187.4 268.6 180 275.1 174.9 280.7 170.6 280.8 170.4 281.4 170 277.6 165.1 276.6 165 276.2 165 272.1 167.9 267.6 171.4L259.4 177.8 255.1 172.3C252.7 169.2 251.2 166.5 251.7 166.1 256 163.1 264 156.6 264 156.1 264 155.8 263.1 154.4 262.1 153.1L260.2 150.6 253.4 156 246.7 161.3 244.3 158.4C239.3 152.4 238.7 151.1 240 149.5 240.7 148.7 244.3 145.7 248.1 142.9 251.9 140.1 255 137.6 255 137.4 255 136.4 251.7 132 251 132 250.6 132 245 136.1 238.6 141ZM769.1 172.6C760.2 182.3 753.1 190.7 753.2 191.2 753.4 191.7 758.5 196.6 764.5 202.1L775.5 212 777.7 209.3 779.9 206.5 771.9 199 763.8 191.5 768.8 186.7 773.7 181.8 779.9 187.6 786.1 193.3 788.6 190.8 791.1 188.3 784.7 182.4 778.2 176.5 782.7 171.6C787.8 165.9 786.8 165.7 796.8 174.7L803.7 180.9 806.1 178.4 808.5 175.8 802.5 170.4C799.2 167.4 794 162.7 790.9 160L785.3 155 769.1 172.6ZM485 176L491 188 491 287.6C491 348.3 491.4 387 491.9 386.8 492.4 386.6 496 382.9 499.9 378.5L507 370.5 507 279.6 507 188.7 513 177.4C516.3 171.2 519 165.7 519 165.1 519 164.3 512.6 164 499 164L479 164 485 176ZM195.3 178.2L192.2 181.5 209.3 199.2 226.5 216.9 237 207 247.5 197.1 244.8 194.3 242 191.5 235 198.5 228.1 205.4 213.3 190.1 198.5 174.8 195.3 178.2ZM806.4 207.7C799.9 220.2 794.4 230.9 794.3 231.5 794.1 232 795.1 233.8 796.5 235.5L799 238.5 824 230.2C837.7 225.6 849 221.5 849 221.1 849 220.7 847.6 219.1 846 217.5L843 214.6 836.7 216.7C833.3 217.8 824.8 220.8 817.7 223.3L805 227.8 806.9 224.6C811.4 217.3 824 193.6 824 192.6 823.9 192 822.7 190 821.1 188.2L818.3 185 806.4 207.7ZM360.3 195.4C269.4 239.4 205.4 320.1 183.7 418 170.4 477.7 175 541 196.7 599.4 202.5 615.1 216.1 642.6 224.8 656.5 251.2 698.3 286.6 733.7 328.7 760.3 334.7 764 347.3 771 356.8 775.7 370.7 782.6 374.4 784 375.1 782.9 375.6 782.1 375.9 781.1 375.7 780.7 375.6 780.3 371.2 778 365.9 775.6 346 766.7 322.1 752 302 736.4 287.2 725 260 697.8 248.6 683 213.7 637.9 191.8 587.4 184 534 171 445.1 194.6 357.6 250.6 287.3 260.5 274.8 286.7 248.6 299 238.8 319 222.9 342 208.6 364 198.2 370.3 195.2 375.6 192.7 375.8 192.5 376.3 192.1 374.8 189 374.1 189 373.8 189 367.6 191.9 360.3 195.4ZM626.3 190.6C625.5 192.6 626.1 193 636 197.4 654 205.5 676.5 218.9 694.4 232.4 754.3 277.5 796.7 342.8 813.4 415.8 819.2 440.8 820.4 453.1 820.5 486 820.5 513.1 820.2 518.2 818.1 532 811 579.1 794.3 622.7 768.9 661 736.9 708.9 696 745.2 644.8 771 627.9 779.5 624.4 781.9 626.8 783.4 628.1 784.2 648.5 774.5 661.5 767.1 707.6 740.4 743.8 706.5 772.5 663 822.3 587.6 837.9 495.2 815.6 407.6 794.6 325.2 742.3 254.6 669.4 210.5 659.8 204.6 629.4 189 627.6 189 627.2 189 626.7 189.7 626.3 190.6ZM176.5 205.9C164.6 208.9 154.6 222.8 156.6 233.7 158.2 242.8 166 251.8 174.9 254.9 192.8 260.9 211.8 242.7 206.6 224.7 203 212.2 188.1 202.9 176.5 205.9ZM188 216.4C194.5 219.8 198.2 224.8 198.7 230.7 199.5 240 193 247 183.4 247 179 247 177.5 246.5 173.8 243.7 165 236.9 162.6 228.9 167.3 221.9 172.6 214.1 180 212.1 188 216.4ZM564.2 231.6C561.5 233.4 561.4 236.8 563.6 243.1 565.5 248.3 565 251 562.2 251 559.7 251 557.2 248.1 556.4 244.2 555.7 240.9 554.1 239.7 552 241 549.8 242.4 552.4 249.3 556.5 252.9 560.8 256.6 565.9 257.1 569 254 571.4 251.6 571.5 249.6 569.5 244 567.5 238.3 567.6 236 569.8 236 572.2 236 574.9 239 575.9 242.6 576.8 246.2 581 247.4 581 244 581 240.5 577.1 234 573.7 232 569.8 229.6 567.2 229.5 564.2 231.6ZM842 248C832.4 250 821.9 252.3 818.8 252.9 815.6 253.6 813 254.5 813 254.9 813 255.3 814.2 257 815.8 258.8L818.5 261.9 824.3 260.6 830.1 259.2 835.7 267.6 841.3 276 837.7 281.2 834.1 286.3 836.2 290.1C837.4 292.2 838.7 293.7 839.1 293.5 840.5 292.6 869 252.1 869 251 869 250.3 868.1 248.5 866.9 246.9 864.3 243.3 864 243.3 842 248ZM852.5 261.4C848.8 266.1 845.7 270 845.6 270 845 270 838 259 838 258.2 838 257.5 858 252.1 858.8 252.6 859 252.7 856.1 256.7 852.5 261.4ZM453.1 253.1C431 255.8 413.8 264.5 407 276.3 403.1 283.1 402.3 288.7 404.3 294.8L405.9 299.5 399.7 305.7 393.6 312 386.9 312C379.6 312 377.6 313.2 378.2 317.2 378.5 319.3 379.1 319.5 384.8 319.8L391 320.1 391 327.5C391 333.7 391.3 335.1 392.8 335.9 394.2 336.6 395.3 336.5 396.8 335.4 398.8 334.1 399 332.9 399 325.7L399 317.6 405.2 311.3 411.4 305.1 417 305.7C424.5 306.4 428.2 305.1 436.8 298.6 450 288.5 460.6 284.9 476.8 284.9L487 284.9 487 282.1C487 278.5 485.7 278 476.2 278 461 278.1 446.2 283.1 434 292.5 423.2 300.8 417.5 301.7 412.5 295.8 409.6 292.4 409.2 286.9 411.4 281.6 414.9 273.1 428 264.9 443.5 261.4 451.9 259.4 473.1 258.8 482.3 260.2L487 261 487 257.6C487 254.5 486.7 254.2 483.3 253.7 475.7 252.5 460.3 252.2 453.1 253.1ZM139 255.1C137.6 255.7 135.2 257.3 133.7 258.8 129.8 262.5 120.6 278 121.6 279 123 280.4 162.1 303 163.1 303 163.6 303 164.8 301.3 165.9 299.2L167.8 295.5 160.5 291.2 153.1 287 156.7 280.3C159.7 274.5 160.1 272.8 159.7 268.7 159.2 262.7 156.7 259.2 151 256.2 146.3 253.8 143 253.5 139 255.1ZM149.1 265.9C152.7 269.6 152.8 272.8 149.4 278.6 148 281 146.7 283 146.5 283 145.7 283 132 274.8 132 274.3 132 272.8 137.2 265 138.8 264.1 142 262.2 146 262.9 149.1 265.9ZM578.5 264.7C572.5 267.7 567.4 270.3 567.2 270.5 567.1 270.6 567.4 271.9 568.1 273.3L569.2 275.8 573.6 273.9 578 272.1 579.6 276C582 281.9 586.5 285.3 590.9 284.6 595.7 283.8 597.5 281.7 597.5 276.7 597.5 272 592.4 259 590.6 259.1 590 259.1 584.6 261.6 578.5 264.7ZM512 265.4C512 268.6 512.5 269.2 518.1 272.6 537.2 284.1 546.8 304.1 545.7 329.5 544.5 356.6 532.5 377.9 487 434 479.9 442.8 472.7 456.8 470.5 466 466.6 483 470.5 501.2 482.1 519.5L486.5 526.5 486.8 521.3C487.1 516.8 486.5 514.8 483.1 507.8 477.9 497.2 476 489.6 476 479.5 476 462 480.9 452.1 503.1 424.5 541.6 376.6 554.6 349.6 552.7 321.2 552.1 312.1 548.6 299.1 544.5 290.9 539.2 280.5 528.7 270.4 516.8 264.4L512 262 512 265.4ZM866.1 293C854.3 298.5 844.5 303.2 844.2 303.5 843.9 303.8 844.4 305.6 845.3 307.5L846.9 310.9 861.7 304C869.8 300.2 876.6 297.3 876.8 297.5 877 297.7 873.1 305.8 868.1 315.6 863.1 325.3 859 334.2 859 335.4 859 336.6 859.6 338.3 860.3 339.2 861.6 340.9 861.9 340.8 896.3 324.7L906.1 320.1 904.4 316.8C903.5 315 902.7 313.4 902.5 313.2 902.4 313.1 895.6 316.1 887.4 319.9 879.2 323.7 872.4 326.7 872.2 326.5 872.1 326.4 876.3 317.9 881.6 307.6 890.6 290 891.1 288.7 890 286 889.3 284.3 888.5 283 888.1 283 887.8 283 877.9 287.5 866.1 293ZM512 293C512 296.5 512.7 298 515.6 301.3 526.1 312.9 528.5 333.9 521.6 352.5 517 364.6 508.6 377.2 492.9 395.5 463.7 429.7 453.6 451.1 453.8 479 453.9 501.6 461.7 520.5 479.9 542.5L486.5 550.4 486.8 545.7C487.1 541.4 486.7 540.4 483.2 536.2 458.7 506.8 453.6 474.5 468.5 442.3 473 432.6 483 417.6 492 407 515 380 523.2 367.9 528.3 353.3 531.2 345.2 531.5 343.5 531.5 331.5 531.5 321.9 531 317 529.8 312.9 527.6 305.8 521.1 296.1 515.9 292L512 288.8 512 293ZM588.1 297.8C581.6 301.1 578.7 307.7 580.2 315.8 581.3 321.8 584.2 325.5 589.5 327.6 600.7 331.8 609.7 322.2 606.9 309.1 605.6 303.1 602.8 299.2 598.4 297.4 594 295.6 592.2 295.6 588.1 297.8ZM600.1 305.6C603.5 309.2 603.6 317.3 600.1 320.1 596.7 322.8 590.8 322.6 587.3 319.6 585 317.6 584.5 316.4 584.5 312.5 584.5 308.6 585 307.4 587.3 305.4 591.2 302 596.8 302.1 600.1 305.6ZM111 301.6C105.4 306.3 102.4 314.8 104 321 105.8 327.8 113.9 332.6 120.5 330.9 122.2 330.4 126.2 327.4 129.5 324 134.3 319.1 136 318 138.7 318 146.5 318 146.7 327.9 139 334 134.5 337.5 134.3 338.5 136.8 341.8L138.6 344.2 143 340.8C154.9 331.8 155.2 315.7 143.6 310.1 136.5 306.6 134.7 307.2 125.3 316.1 118.8 322.3 115.6 323.4 112.6 320.4 111.7 319.6 111 317.9 111 316.7 111 313.8 114.3 308.4 116.9 307 119.5 305.7 119.6 302.8 117.2 300.7 114.8 298.5 114.7 298.5 111 301.6ZM580.9 341.2C578.6 356 578.5 358 579.8 358.5 582.4 359.5 582.9 359 583.5 354.2 583.9 351.6 584.3 349 584.5 348.4 584.7 347.6 587.9 347.7 595.6 348.6 607.2 350 608 349.8 608 345.4 608 343.4 607.3 343.2 599.3 342.6 594.4 342.2 588.4 341.7 585.8 341.4 583.1 341.1 581 341 580.9 341.2ZM889.2 346.7C882.7 348.7 875.8 354.6 873.5 360.2 871.6 365.2 871.3 372.8 872.9 378.7 874.5 384.5 880 392.4 882.7 392.8 886.2 393.3 902.3 388.1 901.7 386.6 901.4 386 900.4 382.6 899.5 379.2 897.7 372.7 896.2 371.7 892.6 374.3 891.2 375.3 891.1 376 891.9 378.3 892.5 379.9 893 381.3 893 381.5 893 382.3 885.8 384.1 884.4 383.6 882.3 382.8 879 375.2 879 371 879 365.8 882.8 360 888 357.2 891.8 355.2 893.6 354.9 899.2 355.2 905 355.5 906.4 356 908.9 358.4 912.9 362.2 914.3 366.7 913.8 374.2 913.5 380.3 913.5 380.4 916.8 381.7 919.9 383 920.1 382.9 921.1 380.3 922.6 376.2 922.4 367.6 920.6 362.2 916.2 348.9 903.1 342.4 889.2 346.7ZM575.3 370.9C575 371.8 573.4 375.6 571.9 379.4 569.1 386.2 569.2 387.9 572.3 388 573 388 575.6 382.7 577.3 377.8 577.8 376.3 578.4 376.2 581 377.1 584.4 378.3 584.6 379.5 582.5 384.7 581.3 387.6 581.2 388.5 582.2 389.2 584.4 390.6 584.9 390.1 586.7 385 588.3 380.4 588.7 380 591 380.5 595.8 381.7 595.8 382.4 591.6 392.2 590.1 395.7 590.1 396 591.9 397 593.6 397.9 594.2 397.2 597 390.2 598.8 386 600.3 381.2 600.4 379.6 600.5 376.6 600.4 376.6 588.2 372.9 577.3 369.6 575.8 369.4 575.3 370.9ZM105.1 375.5C91.3 377.6 82.4 379.3 81.9 380.1 81.1 381.5 79.7 388.1 80.2 388.4 86.6 393.1 123.4 418 123.6 417.7 123.8 417.6 124.2 415.6 124.6 413.3 125.2 409.2 125.2 409.1 120 405.4 115.9 402.5 115 401.3 115.4 399.6 115.7 398.4 116.7 394.1 117.6 389.9L119.3 382.2 125.1 381.6C131.4 380.9 132.7 379.9 133.6 375.2 134.2 372.1 134.1 372 130.9 372.1 129 372.2 117.4 373.7 105.1 375.5ZM111.6 386.7C111.2 388.8 110.4 392.2 109.9 394.3L108.9 398 103.7 394.6C92.6 387.5 91 386.5 91 385.9 91 385.5 95.2 384.8 100.3 384.3 105.3 383.7 110.1 383.2 110.9 383.2 111.9 383 112.1 383.9 111.6 386.7ZM427.1 390.3C426 391.6 425 392.9 425 393.3 425 393.6 427.7 395.9 430.9 398.5 434.2 401 437.6 403.7 438.4 404.6 440.6 406.7 440.4 410.2 437.9 413.4 435 417.1 431.3 416.8 423.3 411.9 419.5 409.6 416.2 407.6 415.8 407.3 415.1 406.9 411.6 412.9 412.2 413.5 412.4 413.6 415.9 415.6 420.1 417.9 430.3 423.4 434.7 423.5 440 418.2 444.1 414.2 446.1 408.9 445.3 404.6 444.7 401.7 442.1 398.8 434.2 392.2L429.3 388.1 427.1 390.3ZM561.6 400.4C560.1 402.8 560.1 402.9 565 405.9 568.2 407.9 569.8 409.4 569.4 410.4 568.8 411.9 564.7 413 559.4 413 554.8 413 551.3 414.5 549.9 417.1L548.8 419.3 558.3 418.7 567.8 418.2 568.4 421.8C568.7 423.9 569 427.6 569 430.2 569 435.8 570.1 436.2 572.8 431.7 574.7 428.7 574.8 428 573.6 421.4 571.9 411 572.5 410.2 578.8 414.5 580.8 415.9 582.7 417 583 417 583.3 417 584.3 415.7 585.3 414.1L587 411.2 577.2 405.7C562.2 397.3 563.4 397.7 561.6 400.4ZM904.8 404.9C892.3 407 881.8 408.9 881.5 409.2 881.2 409.5 881.9 416.2 883.2 424.1L885.5 438.5 888.4 438.8C890 439 891.6 438.8 892.1 438.3 892.5 437.9 892.3 433.4 891.5 428.5 889.4 415.7 888.8 416.8 898.2 415.4 903.7 414.7 903.4 414.3 905 424.5L906.1 431.6 909.7 431.2C912.9 430.8 913.2 430.5 912.7 428.1 912.4 426.7 911.8 422.7 911.5 419.4L910.8 413.2 916.9 412.5C920.3 412.1 923.3 412 923.5 412.2 923.7 412.4 924.7 417.2 925.6 422.9 927.2 432.4 927.5 433.1 929.4 432.6 930.6 432.3 932.1 432 932.8 432 934.4 432 934.4 430.7 931.9 414.7 930.6 406.3 929.3 401 928.6 401.1 928 401.2 917.3 402.9 904.8 404.9ZM73 424.7C73 429.5 73.1 429.7 82 438.5 88.3 444.7 91 448.2 91 449.8 91 452 90.7 452.1 87.3 451.6 85.2 451.3 80.5 450.8 76.8 450.5L70 449.8 70 454.4C70 459.8 68.3 459.2 93.5 461.5 102.9 462.3 112.4 463.2 114.6 463.5L118.8 464.1 119.2 459.8C119.5 457.4 119.2 455.2 118.7 454.8 118.1 454.5 113.3 453.9 107.8 453.5 97.6 452.8 96.7 452.2 98.9 448.1 99.5 447.1 104.8 443.3 110.8 439.6L121.8 432.9 122.3 428.2C122.6 425.6 122.7 423.3 122.5 423.2 122 422.7 96.1 437.9 95.4 439.1 95.1 439.6 90.4 435.6 84.9 430.3 79.4 424.9 74.5 420.3 73.9 420.2 73.4 420 73 422 73 424.7ZM405.8 428.7C403.2 431.5 399 441.5 399 444.9 399 446.4 401.2 447.3 411.7 449.9 421.7 452.4 424.5 452.8 425.2 451.8 426.8 449.3 425.5 447.7 420.6 446L415.6 444.4 417.7 442.3C418.8 441.2 422.1 439.7 424.9 439 429 438 430.4 437.2 431.1 435.2 431.6 433.9 431.8 432.5 431.5 432.2 431.2 431.9 428.3 432.4 425 433.3 417.5 435.4 418 435.5 418 432.5 418 426.3 410.3 423.9 405.8 428.7ZM498.8 437.7L491 447.1 491 578.6C491 650.9 491.2 710 491.4 710 491.7 710 495.3 705.1 499.4 699L507 688.1 506.8 558.2 506.5 428.3 498.8 437.7ZM902.2 452.1C894.3 452.5 887.6 453.1 887.3 453.3 887.1 453.6 887.2 460.2 887.6 467.9L888.3 482 890.9 482C895.9 482 896.3 481 895.6 471.2L894.9 462.2 902.2 461.6C906.2 461.3 915.7 460.8 923.3 460.4L937.1 459.8 936.8 455.6 936.5 451.5 926.5 451.4C921 451.3 910 451.6 902.2 452.1ZM417.5 460.7C411.9 462.1 396.3 467.4 395.2 468.3 394.5 468.9 394 470.7 394.2 472.4 394.5 475.2 395.4 476 402.5 479.7 406.9 482 412.9 484.8 415.8 485.9L421 488 421 485.2C421 482.9 420.3 482 417.4 480.7 414.9 479.5 414 478.5 414.4 477.4 414.7 476.5 415 473.9 415 471.5 415 467.4 415.2 467.1 418.3 466.5 421.8 465.7 423 464.5 423 461.7 423 460 421.6 459.7 417.5 460.7ZM95.1 480.7C93.6 482.3 91.6 485.7 90.6 488.5 87.2 498.1 86.1 499.9 83.5 500.6 77.7 502 74.6 494.9 77.9 487.5L79.9 483 77.5 481.4C76.1 480.5 74.3 480 73.5 480.4 69.5 481.9 67.5 495.3 70.5 500.9 73.2 506.3 77.6 509 83.4 509 91.6 509 92.9 507.6 98.7 492.5 101 486.5 104.3 484.7 108.4 487.3 112 489.7 112.7 494.7 110.1 500.5 108.9 503.1 108 505.8 108 506.5 108 508.1 112.5 510.4 114 509.5 116.4 508 119 500.5 119 495 119 484.3 113.2 478 103.3 478 98.7 478 97.4 478.4 95.1 480.7ZM414.3 497.5C411 501.1 407.9 504 407.4 504 406.9 504 403.8 501.7 400.5 499 395.9 495.2 394.4 494.3 394.2 495.6 393.4 499.3 395.3 502.1 401.6 506.6 405.1 509.1 407.9 511.7 407.7 512.4 407.5 513 405.1 514 402.4 514.6 398 515.5 397.5 515.9 397.8 518.1 398 519.4 398.5 520.9 399 521.3 399.5 521.9 423.2 516.6 424.8 515.4 425 515.3 424.8 514 424.4 512.5 423.9 510.4 423.3 510 421.6 510.4 413.6 512.3 412 512.3 412 510.3 412 509.2 414.3 505.7 417 502.6 421.2 497.8 421.9 496.4 421.4 494.2 421 492.7 420.6 491.4 420.5 491.2 420.4 491 417.6 493.9 414.3 497.5ZM887.5 498C887.1 500.3 887.2 502.6 887.6 503 888.1 503.4 899.4 504.1 912.8 504.5L937 505.2 937 500.7 937 496.2 922.3 495.6C914.1 495.2 903.2 494.7 897.9 494.4L888.2 493.8 887.5 498ZM561.3 509.6C554.9 512.9 552.3 521 555.4 528.3 557.9 534.2 565.5 540.2 567.2 537.6 568.5 535.6 568 534.3 565.5 533.2 562.5 531.8 559 526.4 559 523.1 559 519.9 565.1 514 568.5 514 571.9 514 577.8 519.7 578.6 523.9 579 525.7 580 527.2 581.2 527.6 583.9 528.4 584.3 527.7 583.6 523.8 581.6 512.9 569.7 505.3 561.3 509.6ZM110.2 525.7L101 534.2 98.2 531.3C91.2 523.7 78.4 525.6 74.9 534.7 73 539.7 75 562 77.4 562 78.9 562 119.8 556.1 122.9 555.4 125 554.9 125.2 554.6 124.6 550.7 124.2 548.4 123.8 546.4 123.6 546.2 123.4 546.1 119.3 546.6 114.4 547.3 109.5 548.1 105.4 548.7 105.3 548.6 105.2 548.6 104.9 547.3 104.5 545.8 103.8 543 105.1 541.5 117.9 530.4 121.1 527.5 121.2 527.3 120.4 522.3L119.5 517.2 110.2 525.7ZM92.3 536.1C95.1 537.4 96.7 540.3 97.6 545.9L98.2 549.7 90.5 550.9C86.2 551.5 82.5 551.9 82.3 551.7 81.2 550.5 80.9 541.1 81.9 539.1 83.9 535.5 88.2 534.2 92.3 536.1ZM889.2 520.6C881.2 530.3 882.8 544.3 892.5 549 901.7 553.5 907.6 550.6 913.5 538.9 917 532.1 919.2 530.3 922.9 531.5 927 532.8 927.4 542.7 923.5 546 921.3 547.8 921.7 550.2 924.4 552.2 926.6 553.8 926.8 553.8 928.8 551.7 933.9 546.3 935.5 536.4 932.2 530 929.9 525.4 922.9 521.7 918.1 522.5 912.9 523.5 910.5 525.5 907 532.3 902.7 540.4 901.2 542 898 542 891.5 542 889.9 533.4 894.9 525.9L897.9 521.5 895.8 519.3C894.6 518 893.3 517 892.9 517 892.5 517 890.8 518.6 889.2 520.6ZM424 525C424 525.5 424.9 528.2 426 531 427.1 533.8 428 536.4 428 536.9 428 537.6 423.7 540 422.5 540 422.2 540 421.1 537.7 419.9 535 417.7 529.8 417.3 529.5 415.1 530.9 414 531.6 414.2 532.6 415.9 536.5 417.1 539.1 418 541.4 418 541.6 418 541.8 416.6 542.7 415 543.5L411.9 545.1 409.6 539.8C408.4 536.9 407.1 533.7 406.7 532.8 406.3 531.7 405.4 531.3 404.1 531.7 402.9 532 402 532.3 402 532.4 402 534.4 410.6 553 411.6 553 412.1 553 431.4 542.7 433.8 541.2 434.8 540.5 434.4 538.9 432.1 533.9 430.5 530.4 429 526.7 428.6 525.7 428 523.9 424 523.3 424 525ZM577.6 536.5C571.7 540 566.5 543.1 566.2 543.4 565.9 543.8 566.3 545.1 567 546.5L568.3 549 573.5 546 578.6 543.1 581.8 549.6 585 556.1 579.9 558.2C575.3 560.1 574.9 560.5 575.5 562.9 575.9 564.3 576.3 565.6 576.5 565.8 576.6 566 582.4 563.8 589.3 561L601.8 555.8 600.8 552.9C599.6 549.5 599.1 549.4 594 552 591.8 553.1 589.7 554 589.3 554 588.8 554 587 551.1 585.3 547.6L582.1 541.2 587.1 538.6C589.8 537.1 592 535.6 592 535.2 592 534.8 591.2 533.5 590.2 532.3L588.5 530.1 577.6 536.5ZM511 550.6C511 554.9 511.5 556 516.8 562.4 533.2 582.3 544.1 605.2 547.1 625.9 548.5 635.9 547.8 652 545.5 660.5 543.5 668.2 537 681.9 532.2 688.4 530.2 691.2 524.4 697.8 519.4 703.1 509.8 713.1 497.6 728 490.1 738.8 475.8 759.1 495.9 724.1 513.4 698 528 676.5 533.7 663.1 536.1 645.4 538.7 625.6 532 602.7 516.8 579.5L511.5 571.5 511.2 576.8C510.9 581.3 511.4 582.9 514.3 587.8 519.9 597 523.6 604.9 526.6 614 529.1 621.7 529.4 623.9 529.4 636.5 529.4 649.7 529.3 651 526.2 659.7 521.8 672.7 518.8 678.2 505.2 698.6 479.4 737.4 468.5 760.1 466.2 779.4 465.5 786.3 465.5 787.1 466.7 785.4 467.5 784.4 473.6 775.2 480.3 765 495.2 742.3 506.9 726.8 519.2 713.2 537.5 693 540.1 689.6 545.1 679.5 559.4 650.5 557.8 619.5 540.3 585.9 534.8 575.2 524.7 560.8 515.8 551L511 545.8 511 550.6ZM437 548.5C435.9 549.8 436.2 550.8 438.8 554.6 440.6 557 442 559.2 442 559.5 442 559.7 438.2 562.9 433.5 566.5 428.8 570.2 425 573.5 425 573.9 425 574.3 426 575.6 427.3 576.7L429.5 578.8 439.7 570.3 449.8 561.7 444.3 554.4C441.2 550.3 438.6 547 438.5 547 438.4 547 437.7 547.7 437 548.5ZM591.7 565.5C586.9 567.2 585 568.8 583.3 572.7 581.4 577.3 581.7 582.7 584.1 587.6 586.6 593 591.3 596 597 596 605.1 596 610 590.8 610 582.3 609.9 570.4 601.1 562.3 591.7 565.5ZM600.5 571.6C602.9 572.5 605 577.4 605 581.9 605 585 604.4 586.3 602.4 587.9 599.4 590.2 593.4 590.7 590.9 588.7 587.1 585.8 585.7 578.1 588.3 574.8 590.9 571.5 596.4 570.1 600.5 571.6ZM106.5 581C95.5 589.4 86.1 596.6 85.7 597 84.6 597.9 87 606.1 88.4 606.6 89 606.8 99.6 607.8 112 609 124.4 610.1 135.8 611.2 137.4 611.5 140 612 140.2 611.8 139.5 609.2 138.1 603.5 136.4 602.1 130.3 601.8L124.6 601.5 121.8 592C120.3 586.8 119 582.4 119 582.3 119 582.2 121.3 580.5 124 578.5 129.2 574.7 129.7 573.4 127.7 568.7L126.5 565.8 106.5 581ZM115.7 594L117.8 601 106.6 600.4C100.5 600 95.4 599.6 95.3 599.6 94.9 599.3 112.3 587 113 587 113.4 587 114.6 590.2 115.7 594ZM920 573.8C919.3 577.1 918.5 580.3 918.1 580.9 917.5 581.8 912.5 580.9 898.9 577.5 888.8 575 879.8 572.7 878.9 572.4 877.7 572.1 877 573 876.2 576.2 875.6 578.5 875.5 580.7 876 581 876.4 581.3 885.6 583.7 896.3 586.3L915.8 591.2 914 598.1 912.2 605.1 914.7 606.1C916 606.6 917.7 607 918.3 607 919.6 607 929.2 570.2 928.1 569.6 927.8 569.4 926.1 568.9 924.4 568.6 921.3 567.9 921.3 567.9 920 573.8ZM598.2 601C592.6 601.9 587.7 603 587.4 603.3 587.1 603.6 587.1 604.8 587.5 606 588 607.7 588.7 608 590.8 607.6 592.3 607.3 596.2 606.8 599.5 606.4 606.6 605.6 606.4 606.2 597.6 612.5 594.5 614.7 592 617.2 592 618.2 592 619.2 594.9 621.4 599.8 624.2L607.5 628.5 598.5 629C590.3 629.5 589.5 629.7 589.2 631.6 588.9 633.7 589.4 633.8 601.9 634.5 609 634.9 615.3 634.9 615.9 634.5 616.5 634.2 617 632.8 617 631.5 617 628.8 613.9 626.2 604.6 621L598.6 617.6 601 616.1C606.4 612.6 615 604.8 615 603.5 615 598.5 614 598.3 598.2 601ZM133.8 629.4C129.5 636.9 126 643.4 126 644 126 644.6 125.6 644.9 125.1 644.6 123.9 643.8 97.8 636.8 97.5 637.2 97.3 637.4 98.1 639.5 99.3 641.9L101.5 646.4 113.8 649.5C125.3 652.4 128.4 654 127.7 656.5 127.5 657 123.7 659 119.2 661 114.7 663 110.8 664.9 110.4 665.2 109.6 666 112.7 673 113.9 673 115.2 673 156.2 655 157.4 653.9 158.5 652.9 155.6 646 154.1 646 153.6 646 150.1 647.4 146.3 649.1 134.7 654.3 135.1 654.3 133.8 651.6 132.7 649.1 134.3 645.5 143.6 629.5L145.9 625.5 143.7 620.7 141.5 615.9 133.8 629.4ZM862.2 620.7C861.7 622.3 860.9 624.2 860.6 625 860.1 626.2 862.1 627.3 868.9 630L877.8 633.4 888.6 647.3 899.4 661.1 901.1 656.8C902.7 652.9 902.7 652.3 901.3 650 899.6 647.3 888.1 634 886.6 632.8 885.5 632.1 887.8 631.6 902 629.8L911.5 628.5 913.7 624.1C915 621.6 915.9 619.5 915.7 619.4 915.6 619.3 907.7 620.4 898.2 622L880.9 624.8 872.2 621.4C867.4 619.5 863.4 618 863.4 618 863.3 618 862.7 619.2 862.2 620.7ZM596.4 640.7C590.8 641.8 586.3 650.9 588.1 657.4 589.6 662.9 592.9 665 603.1 667.1 608.2 668.2 612.4 668.9 612.5 668.8 612.7 668.6 613.1 667.1 613.4 665.4L614.1 662.3 605 661C597.3 659.9 595.6 659.3 593.9 657.1 591.7 654.4 592 650.7 594.6 648 596.1 646.5 601.9 646.3 611.3 647.6L616 648.2 616 644.6 616 641 610.1 641C606.9 641 603 640.8 601.4 640.6 599.8 640.4 597.5 640.4 596.4 640.7ZM161 667.8L158.6 669.7 164.2 678.8 169.8 687.9 164.2 691.4C161.1 693.3 158.3 694.7 157.9 694.4 157.5 694.2 155.5 691.1 153.4 687.5 151.2 684 149 681 148.4 681 147.7 681 146.3 681.8 145.1 682.7L143 684.5 147.5 691.7 151.9 698.8 146 702.3 140.1 705.8 134.5 696.4 128.9 687 125.9 688.7C124.3 689.6 123 690.7 123 691.1 123 691.7 137.4 715.7 138.4 716.7 138.9 717.3 179.7 693.4 180.4 692.1 180.9 691.2 165.7 666.7 164.4 666.3 163.8 666.1 162.3 666.8 161 667.8ZM837 673.5C835.8 675.4 835.1 677.4 835.5 677.9 835.8 678.4 838.4 680.2 841.3 681.9 844.1 683.6 847.1 685.3 847.8 685.8 848.7 686.4 848.2 688.2 845.5 693.4 839.6 704.8 841.4 712.9 851 717.8 860.1 722.5 867 718.9 875.8 704.9 878.6 700.4 881 696.3 881 695.9 881 695.4 844.4 672.6 839.8 670.3 839.5 670.1 838.2 671.6 837 673.5ZM863.1 695.1C866.9 697.4 870 699.5 870 699.8 870 701.6 864.8 708.8 862.7 709.9 857.8 712.5 850 707.9 850 702.4 850 699.9 854.4 691 855.6 691 855.9 691 859.3 692.9 863.1 695.1ZM606.6 675.9C606.3 678.1 605.6 680.1 605.2 680.4 604.7 680.7 599.6 679.6 593.9 678 588.2 676.4 583.5 675.2 583.3 675.3 583.2 675.4 582.9 676.7 582.5 678.2 582 680.2 582.2 680.9 583.7 681.3 602.2 686.7 603.2 687.2 602.5 689.9 601.2 694.9 601.4 697.4 603.2 697.8 604.9 698.1 607.2 692.3 610.5 679.4 612.4 671.6 612.4 672 609.6 672 607.6 672 607.2 672.6 606.6 675.9ZM582.6 694C578.1 695.4 573.1 700.9 571.6 706.1 569.6 712.5 570.9 717.6 575.4 721.7 583.3 729 595 724 599 711.7 601.4 704.1 597.4 696 590.2 694 586 692.9 586.5 692.9 582.6 694ZM590.7 701.2C594 702.8 595.5 707.2 594.1 711.2 591.6 718.4 586.3 720.8 580.1 717.5 576.9 715.9 576 714.2 576 710 576 701.4 582.8 697.3 590.7 701.2ZM184.5 704.4L181.6 706.7 187.3 714.2C190.4 718.3 193 721.9 193 722.2 193 722.5 186 728 177.5 734.4 169 740.8 161.8 746.5 161.5 747 160.8 748.2 164.7 754 166.1 754 167 754 203.6 726.4 204.4 725.1 204.7 724.6 190.2 704.9 187.8 702.4 187.6 702.2 186.1 703.1 184.5 704.4ZM809 718.1C802.3 720.8 796 730.1 796 737.5 796 746.3 797.7 748.5 815.9 763.3L826.3 771.7 829.4 768.2 832.4 764.8 828.5 761.6C814.3 750.3 806.7 743.4 805.3 740.5 803.3 736.4 804.2 732.7 808 728.9 810.3 726.6 811.7 726 815.2 726 820.2 726 820.7 726.3 835.3 738.3 841.2 743.1 846.5 746.8 847 746.5 847.5 746.2 848.8 744.6 850 743L852.1 740.1 840.3 730.5C833.8 725.2 826.8 720 824.8 718.9 820.8 716.8 813.2 716.5 809 718.1ZM557.7 728.8C556 730.6 556.1 731.1 560.3 739.1 562.7 743.7 565.6 750 566.9 753L569.1 758.5 571.1 756.1C572.1 754.8 573 753.1 573 752.4 573 750.7 568.9 742.4 565.3 736.7L562.9 732.9 565.2 733.4C571.1 734.7 579.7 736 582.6 736 584.9 736 586.2 735.3 587.5 733.4 588.4 732 589 730.7 588.8 730.6 588.6 730.5 583.1 729.8 576.5 729.1 569.9 728.5 563.4 727.7 562 727.4 560.2 727 558.9 727.5 557.7 728.8ZM498.8 746.3L491 756.2 491 835.8 491 915.5 495 932.4C497.2 941.8 499.2 949.5 499.3 949.7 499.5 949.8 501.3 942.7 503.3 933.7L507 917.5 506.8 827 506.5 736.5 498.8 746.3ZM216.1 773.1L206.8 797.2 210.2 800.6 213.6 804.1 236.5 792.9C249.2 786.8 259.7 781.6 259.9 781.4 260.2 781.1 259 779.5 257.3 777.8L254.2 774.7 249.1 777.4C246.3 778.8 243.5 780 242.8 780 242.1 779.9 238.4 777.1 234.6 773.6L227.7 767.2 230 761.1 232.3 754.9 229.5 752C227.9 750.3 226.3 749 226 749 225.7 749 221.2 759.9 216.1 773.1ZM231 778.9L236.5 783.7 226.4 788.8 216.3 793.9 220.4 784C222.6 778.5 224.7 774 225 774 225.3 774 228 776.2 231 778.9ZM774 754.9L770.5 757.8 773 760.7C774.3 762.2 777.4 765.6 779.8 768.2L784.2 772.8 781.5 774.6C778.9 776.3 778.5 776.3 769.2 774 763.8 772.8 759 771.5 758.4 771.3 756.9 770.7 749.7 777.1 750.7 778 751.5 778.8 768.9 783 772.3 783.3 773.8 783.4 774 783.9 773.3 786 769.5 798.6 781 808.9 792.6 803.4 794.5 802.5 799.4 798.6 803.5 794.8L811 787.8 795.3 771.1C786.7 762 779.2 753.9 778.5 753.2 777.7 752.3 776.7 752.6 774 754.9ZM796 792.1C789.5 797.6 785.1 797.8 781.6 792.8 779.1 789.2 779.7 786.3 784 781.6L788.1 777.2 793.8 783.2 799.5 789.2 796 792.1ZM264.6 796.7C264.9 803.8 265.2 811.1 265.4 813L265.7 816.5 251.9 820.4C244.2 822.6 238 824.6 238 824.9 238 826 245 830 246.7 830 247.7 830 252.8 828.6 258 827 267.7 824 270.6 823.5 273.4 824.6 274.7 825.1 274 826.6 269.7 832.9 266.8 837.1 264.1 841 263.7 841.6 263.3 842.3 264.6 843.8 266.8 845.3L270.6 847.8 278.7 836.1C283.2 829.7 289.6 820.6 292.9 815.9L298.9 807.2 295.1 804.7 291.2 802.1 285 811C279.4 819 278.6 819.8 276.9 818.7 274.5 817.2 274.3 816.2 273.6 802L273.1 790.5 269.4 787.2C267.3 785.5 265.3 784 264.9 784 264.5 784 264.3 789.7 264.6 796.7ZM736.3 787.5L733.1 790.1 739.2 798.6C744.2 805.6 745 807.3 744 808.5 742.2 810.7 739.9 810.4 727.3 806.4 721 804.5 715.1 803.2 714.2 803.5 713.3 803.8 711.2 805.1 709.6 806.4L706.7 808.8 720.8 813.4C728.5 815.9 735.6 818 736.5 818 737.9 818 738.1 818.8 737.6 823.2 737.3 826.1 736.8 833 736.4 838.4L735.8 848.3 739.9 845.4C742.1 843.8 744.2 841.8 744.4 841 744.6 840.2 745.1 834.2 745.5 827.8 746 818.6 746.6 815.8 747.9 814.6 749.5 813.1 750.1 813.7 755.5 821.4 761.8 830.3 761.7 830.3 766.7 826.3L769 824.5 754.9 804.7C747.1 793.9 740.5 785 740.2 785 739.8 785 738.1 786.2 736.3 787.5ZM310 821.2C306.7 822.9 304.9 824.7 303.2 828.2 301 832.4 300.9 833.2 302 836.6 302.7 838.6 305.7 842.9 308.6 846.1 311.9 849.7 314 852.9 314 854.3 314 857 311.2 860 308.6 860 305.8 860 301.3 857.2 299 854 296.5 850.6 295.1 850.3 292.1 852.7L289.9 854.5 292.5 858.2C295.9 863.2 302.8 867.2 308.3 867.2 313.9 867.3 317.9 865.3 320.8 861 322.7 858.2 323.1 856.6 322.7 852.7 322.3 848.6 321.6 847.2 316.6 842.1 310.5 835.6 309.6 832.4 313 829 316.8 825.2 323.8 827.7 327.9 834.4 330.5 838.5 331.8 838.8 335.1 836.1 337.4 834.3 337.4 834.2 335.6 831.4 331.1 824.4 325.6 820.6 318.3 819.5 315.5 819 313.4 819.5 310 821.2ZM682.8 821.1C680.7 822.2 679 823.3 679 823.7 679 824 680.9 827.7 683.1 831.9L687.3 839.4 686.6 857.3 685.9 875.2 690.2 872.8 694.5 870.5 694.8 857.3 695.1 844.2 705.2 851.1C710.8 854.9 716 858 716.7 858 718.3 858 725 854.8 725 854.1 725 853.8 718.7 849.7 711 845.1 703.4 840.5 696.4 836 695.7 835.1 694.9 834.2 692.6 830.2 690.6 826.2 688.6 822.3 686.9 819 686.7 819 686.6 819.1 684.8 820 682.8 821.1ZM348.6 834.9C348.3 835.3 347.6 836.8 347.1 838.2 346.2 840.7 346.4 840.8 356.1 844.5 361.5 846.5 366 848.6 366 849 366 850.6 361.7 861 361.1 861 360.7 861 357.5 859.9 354 858.5 350.5 857.1 347.1 856 346.5 856 345.3 856 342.6 860.9 343.4 861.7 343.6 861.9 347 863.4 351 864.9 354.9 866.4 358.2 868 358.2 868.4 358.4 870.2 354.4 880 353.5 880 352.8 880 348.3 878.4 343.4 876.5 338.5 874.6 334.3 873 334 873 333.4 873 330.9 879.2 331.3 879.6 331.4 879.7 337.9 882.3 345.8 885.3L360.1 890.8 361.1 888.2C361.7 886.7 365.5 876.9 369.5 866.5 373.6 856 377 846.9 377.2 846.2 377.4 845.4 372.5 843 363.5 839.5 347.4 833.2 349.3 833.8 348.6 834.9ZM648.8 837.2C647.2 837.7 646 838.7 646 839.3 646.1 840 648.5 847 651.4 855 654.3 863 656.6 869.6 656.5 869.8 656.4 869.9 648.3 865.1 638.5 858.9 622.1 848.7 620.5 847.9 617.6 848.7 615.9 849.2 614.5 850 614.5 850.5 614.5 851.3 629.9 894.7 630.5 895.7 630.8 896.2 638 893.6 638 893 638 892.7 635.5 885.7 632.5 877.5 629.5 869.3 627.2 862.5 627.4 862.3 627.5 862.1 635.7 867 645.4 873 662.6 883.7 663.3 884.1 666.5 883L669.8 881.9 666.8 873.7C665.2 869.2 661.5 859 658.6 851.1 655.7 843.1 652.9 836.5 652.4 836.4 651.9 836.3 650.3 836.6 648.8 837.2ZM390.3 853.7C386.5 855.6 386.4 856 388.8 859 390.4 861 390.9 861.1 394.8 860.1 402.9 857.9 411.6 862.3 414.1 869.7 416.6 877.3 412.1 889.3 405.6 892.4 399.6 895.2 391.8 893.9 387.6 889.1 385.3 886.5 384.2 886.5 381 889L378.5 890.9 381.9 894.4C385.8 898.4 394.2 902 399.7 902 406.1 902 411.3 899.8 416.1 895 429.3 881.9 425.5 859.3 409.1 853.5 403.5 851.6 394.4 851.7 390.3 853.7ZM581.7 857.3L567.9 860.3 568.6 863.4C568.9 865.1 569.4 866.7 569.6 866.9 569.9 867.2 574.7 866.4 580.3 865.3 585.9 864.1 590.6 863.2 590.7 863.3 591.3 864 593.6 876.1 593.1 876.4 592.8 876.6 589 877.5 584.7 878.5L576.9 880.2 577.6 883.3C577.9 885.1 578.4 886.6 578.5 886.8 578.6 887 581.8 886.4 585.4 885.5 595.3 883.3 595.6 883.3 596.4 888.2 596.8 890.6 597.3 893.4 597.6 894.6 598.1 896.5 597.2 896.8 587.9 898.8 582.2 900 577.4 901.2 577.2 901.4 576.5 902.2 578.1 908 579 908 580.2 908 608.3 902 608.6 901.7 608.7 901.6 606.5 890.8 603.6 877.8 599.6 859.3 598.2 854 597 854.1 596.2 854.2 589.3 855.6 581.7 857.3Z",
        "width": 1000
      },
      "search": [
        "logo"
      ]
    },
    {
      "uid": "c40ffb68cde68be52fbfeb38d2a1a9d4",
      "css": "arr-up",
      "code": 59393,
      "src": "custom_icons",
      "selected": true,
      "svg": {
        "path": "M274.7 455.8L50 680.5 79.8 710.3 109.5 740 304.5 545 499.5 350 694.5 545 889.5 740 919.3 710.2 949 680.5 724.2 455.7 499.5 231 274.7 455.8Z",
        "width": 1000
      },
      "search": [
        "arr-up"
      ]
    },
    {
      "uid": "4e046f0e8ada98c3b3c16f9a79b82532",
      "css": "arr-right",
      "code": 59394,
      "src": "custom_icons",
      "selected": true,
      "svg": {
        "path": "M289.7 80.8L260 110.5 455 305.5 650 500.5 455 695.5 260 890.5 289.8 920.3 319.5 950 544.3 725.2 769 500.5 544.2 275.7 319.5 51 289.7 80.8Z",
        "width": 1000
      },
      "search": [
        "arr-right"
      ]
    },
    {
      "uid": "0af781174a136a32b3a9197a11944312",
      "css": "arrow-right",
      "code": 59395,
      "src": "custom_icons",
      "selected": true,
      "svg": {
        "path": "M279.7 59.7L270 69.5 485.2 284.7 700.5 500 485.2 715.3 270 930.5 279.8 940.3 289.5 950 514.5 725 739.5 500 514.5 275 289.5 50 279.7 59.7Z",
        "width": 1000
      },
      "search": [
        "arrow-right"
      ]
    },
    {
      "uid": "f2f058154c0a3a082d2ee72ead86bc12",
      "css": "arrow-left",
      "code": 59396,
      "src": "custom_icons",
      "selected": true,
      "svg": {
        "path": "M485.5 275L260.5 500 485.5 725 710.5 950 720.2 940.3 730 930.5 514.8 715.3 299.5 500 514.8 284.7 730 69.5 720.2 59.7 710.5 50 485.5 275Z",
        "width": 1000
      },
      "search": [
        "arrow-left"
      ]
    },
    {
      "uid": "0e437f46a8f49b39896759437e21ceee",
      "css": "arr-left",
      "code": 59397,
      "src": "custom_icons",
      "selected": true,
      "svg": {
        "path": "M455.7 275.8L231 500.5 455.8 725.3 680.5 950 710.3 920.2 740 890.5 545 695.5 350 500.5 545 305.5 740 110.5 710.2 80.7 680.5 51 455.7 275.8Z",
        "width": 1000
      },
      "search": [
        "arr-left"
      ]
    },
    {
      "uid": "0e59eab2458be0f16a388736fc4a18c1",
      "css": "arr-down",
      "code": 59398,
      "src": "custom_icons",
      "selected": true,
      "svg": {
        "path": "M79.7 289.8L50 319.5 274.8 544.3 499.5 769 724.3 544.2 949 319.5 919.2 289.7 889.5 260 694.5 455 499.5 650 304.5 455 109.5 260 79.7 289.8Z",
        "width": 1000
      },
      "search": [
        "arr-down"
      ]
    },
    {
      "uid": "85ccc3229e192035d9fe5184f1769307",
      "css": "search",
      "code": 59399,
      "src": "custom_icons",
      "selected": true,
      "svg": {
        "path": "M405.2 51.1C329.2 55.7 254 84.6 194.6 131.9 116.1 194.4 66.3 282.4 52.9 382.3 50.2 402.4 49.3 441.3 51 461.6 63.9 617.2 166.4 747.4 313.4 794.9 429.1 832.3 557 810.8 654.6 737.4L666.9 728.1 785.1 847C874.9 937.4 904.4 966.5 907.9 968.2 914.6 971.4 923.9 971.8 931.2 969 942.8 964.7 950.8 951.9 949.8 939.4 948.8 928 952.4 931.8 826.3 805.1L709.1 687.3 716.2 678.9C765 621.2 794.3 554.5 804.5 478 808.1 451.4 807.6 406 803.4 377.5 787.6 269 727.7 173.9 637 113.5 580.4 75.9 518 55.1 449 51 430.7 49.9 424.6 49.9 405.2 51.1ZM465 111.6C562.6 122.3 652.2 180.3 702.9 265.8 726.6 305.7 741 348.6 746.6 395.5 748.5 412.1 748.8 448.5 747.1 464 738.7 540.7 707 607.2 653.6 660.5 602.5 711.5 540.9 741.6 467.5 751.6 449.5 754.1 407.7 754.1 390 751.7 350.9 746.3 319.9 737 287 720.6 223.3 688.8 173.7 638.9 142 574.5 130.8 551.8 124.5 535.2 119 513.4 111.4 484 108.8 462.5 108.8 431 108.9 379.6 119.1 335.4 141.5 289.5 173.3 224.4 224.5 173.3 289.5 141.5 343.8 115 403.2 104.9 465 111.6Z",
        "width": 1000
      },
      "search": [
        "search"
      ]
    },
    {
      "uid": "89cf050710c75274719151f334105909",
      "css": "menu",
      "code": 59400,
      "src": "custom_icons",
      "selected": true,
      "svg": {
        "path": "M50 140L50 230 500 230 950 230 950 140 950 50 500 50 50 50 50 140ZM50 500L50 590 500 590 950 590 950 500 950 410 500 410 50 410 50 500ZM50 860L50 950 500 950 950 950 950 860 950 770 500 770 50 770 50 860Z",
        "width": 1000
      },
      "search": [
        "menu"
      ]
    },
    {
      "uid": "11e664deed5b2587456a4f9c01d720b6",
      "css": "cancel",
      "code": 59401,
      "src": "iconic"
    }
  ]
}